\relax 
\citation{AlFaresM2008,GuoC2008,GuoC2009,Zhengk2016,BhuyanLN1984}
\citation{AlFaresM2008,LeisersonCE1985}
\citation{GuoC2008}
\citation{GuoC2009}
\@writefile{toc}{\contentsline {section}{\numberline {1}Abstract}{1}}
\@writefile{toc}{\contentsline {section}{\numberline {2}Introduction}{1}}
\citation{EfeK1992,DBLPEfe}
\citation{GuoC2008}
\@writefile{toc}{\contentsline {section}{\numberline {3}Physical Structure and Properties of BCDC}{2}}
\citation{EfeK1992}
\citation{EfeK1992}
\citation{wang2018bcdc}
\citation{wang2018bcdc}
\@writefile{lof}{\contentsline {figure}{\numberline {1}{\ignorespaces (a) The $3$-dimensional crossed cube $CQ_3$. (b) The $4$-dimensional crossed cube $CQ_4$.}}{3}}
\newlabel{figcq3}{{1}{3}}
\newlabel{pair-related-CQn}{{1}{3}}
\newlabel{Defi-CQn}{{2}{3}}
\newlabel{Defi-BCDCn}{{3}{3}}
\newlabel{kappabn}{{1}{3}}
\@writefile{toc}{\contentsline {section}{\numberline {4}Fault-Free Routing in BCDC}{3}}
\citation{DBLPEfe}
\citation{Chang2000Edge}
\citation{DBLPEfe,EfeK1992}
\citation{wang2018bcdc}
\@writefile{lof}{\contentsline {figure}{\numberline {2}{\ignorespaces (a)The original graph of 3-dimensional BCDC $A_3$, (b)The logical graph of 3-dimensional BCDC $B_3$}}{4}}
\newlabel{original-logical-bcdc3}{{2}{4}}
\@writefile{toc}{\contentsline {subsection}{\numberline {4.1}One-to-One Routing}{4}}
\newlabel{dcq}{{1}{4}}
\newlabel{diameterBn}{{2}{4}}
\@writefile{loa}{\contentsline {algorithm}{\numberline {1}\texttt  {OTORouting}}{4}}
\newlabel{OTORouting}{{1}{4}}
\@writefile{toc}{\contentsline {subsection}{\numberline {4.2}One-to-Many Routing}{4}}
\newlabel{OTMRouting}{{2}{5}}
\@writefile{loa}{\contentsline {algorithm}{\numberline {2}\texttt  {OTMRouting}}{5}}
\@writefile{toc}{\contentsline {subsection}{\numberline {4.3}One-to-All(Broadcast) and All-to-All Routing}{5}}
\@writefile{toc}{\contentsline {section}{\numberline {5}Fault-Tolerant Routing in BCDC}{5}}
\citation{wang2018bcdc}
\citation{wang2018bcdc}
\newlabel{mappingPath}{{2}{6}}
\newlabel{BFinding}{{3}{6}}
\@writefile{loa}{\contentsline {algorithm}{\numberline {3}\texttt  {{BFinding}}}{6}}
\newlabel{bindingPath}{{3}{6}}
\newlabel{BMerging}{{4}{6}}
\@writefile{loa}{\contentsline {algorithm}{\numberline {4}\texttt  {{BMerging}}}{6}}
\newlabel{BFTRouting}{{5}{7}}
\@writefile{loa}{\contentsline {algorithm}{\numberline {5}\texttt  {BFTRouting}}{7}}
\citation{Chang2000Edge}
\citation{Chang2000Edge}
\@writefile{toc}{\contentsline {section}{\numberline {6}Disjoint Paths in BCDC}{8}}
\newlabel{COndisjointpath}{{3}{8}}
\@writefile{toc}{\contentsline {section}{\numberline {7}Experiments and Evaluation}{9}}
\@writefile{toc}{\contentsline {subsection}{\numberline {7.1}Communication performance of $B_3$, DCell$_{1,3}$, and Fat-Tree}{9}}
\newlabel{Fig.sub.1}{{3(a)}{9}}
\newlabel{sub@Fig.sub.1}{{(a)}{9}}
\newlabel{Fig.sub.2}{{3(b)}{9}}
\newlabel{sub@Fig.sub.2}{{(b)}{9}}
\@writefile{lof}{\contentsline {figure}{\numberline {3}{\ignorespaces The total transmission time and average CPU usage rate of $B_3$, DCell$_{1,3}$, and Fat-Tree in data communication}}{9}}
\@writefile{lof}{\contentsline {subfigure}{\numberline{(a)}{\ignorespaces {The total transmission time}}}{9}}
\@writefile{lof}{\contentsline {subfigure}{\numberline{(b)}{\ignorespaces {The average CPU usage rate}}}{9}}
\newlabel{broadcast}{{3}{9}}
\@writefile{toc}{\contentsline {subsection}{\numberline {7.2}Fault Tolerance of $B_3$, DCell$_{1,3}$, and Fat-Tree}{9}}
\@writefile{toc}{\contentsline {subsection}{\numberline {7.3}Node-Disjoint Paths of $B_3$ and DCell$_{1,3}$}{10}}
\@writefile{lot}{\contentsline {table}{\numberline {2}{\ignorespaces The transmission time and the average CPU usage rate of Node-Disjoint Paths in BCDC and DCell}}{10}}
\newlabel{node-disjoint paths}{{2}{10}}
\@writefile{toc}{\contentsline {section}{\numberline {8}Conclusion}{10}}
\bibcite{Chang2000Edge}{1}
\bibcite{DBLPEfe}{2}
\bibcite{AlFaresM2008}{3}
\bibcite{GuoC2009}{4}
\bibcite{GuoC2008}{5}
\bibcite{Zhengk2016}{6}
\bibcite{BhuyanLN1984}{7}
\bibcite{wang2018bcdc}{8}
\bibcite{EfeK1992}{9}
\bibcite{LeisersonCE1985}{10}
\@writefile{lot}{\contentsline {table}{\numberline {1}{\ignorespaces Fault tolerance performance of BCDC, DCell, and Fat-Tree}}{11}}
\newlabel{faultToleranceData}{{1}{11}}
